\relax 
\citation{thompson2}
\@writefile{toc}{\contentsline {section}{\numberline {1}Introduction}{1}}
\@writefile{toc}{\contentsline {section}{\numberline {2}Internal railbound noise as function of speed}{1}}
\citation{china}
\citation{gungor}
\citation{gungor}
\citation{thompson2}
\@writefile{toc}{\contentsline {section}{\numberline {3}Train air conditioning noise with different diffuser shape}{2}}
\citation{thompson2}
\newlabel{noiseSources}{{3}{3}}
\@writefile{toc}{\contentsline {subsection}{\numberline {3.1}Methods}{3}}
\@writefile{toc}{\contentsline {subsection}{\numberline {3.2}Simulation steps}{3}}
\citation{poland}
\@writefile{toc}{\contentsline {subsection}{\numberline {3.3}Simulation Result}{4}}
\newlabel{SpeedCom1}{{2}{4}}
\newlabel{PressCom2}{{3}{5}}
\newlabel{NoiseCom}{{4}{5}}
\newlabel{joinStream}{{3.3}{5}}
\bibcite{ashrae}{1}
\bibcite{gungor}{2}
\bibcite{thompson2}{3}
\bibcite{china}{4}
\bibcite{poland}{5}
\newlabel{tabel_prediksi2}{{5}{6}}
\@writefile{toc}{\contentsline {subsection}{\numberline {3.4}Experimental result}{6}}
\@writefile{toc}{\contentsline {section}{\numberline {4}Conclusion}{6}}
\@writefile{toc}{\contentsline {section}{\numberline {5}Acknowledgment}{6}}
