\relax 
\select@language{bahasai}
\@writefile{toc}{\select@language{bahasai}}
\@writefile{lof}{\select@language{bahasai}}
\@writefile{lot}{\select@language{bahasai}}
\@writefile{toc}{\contentsline {section}{\numberline {I}PENDAHULUAN}{1}}
\citation{greece}
\@writefile{lof}{\contentsline {figure}{\numberline {1}{\ignorespaces Sumber-sumber bising pada kereta api [2]}}{2}}
\newlabel{sumber}{{1}{2}}
\@writefile{toc}{\contentsline {section}{\numberline {II}METODOLOGI}{2}}
\@writefile{toc}{\contentsline {subsection}{\numberline {\unhbox \voidb@x \hbox {II-A}}Metode Prediksi Kebisingan}{2}}
\@writefile{lof}{\contentsline {figure}{\numberline {2}{\ignorespaces Diagram alir penelitian prediksi dan pengendalian bising kereta api di Indonesia}}{2}}
\newlabel{prediksi}{{1}{2}}
\citation{yamamoto}
\@writefile{toc}{\contentsline {subsection}{\numberline {\unhbox \voidb@x \hbox {II-B}}Metode Pengendalian Bising}{3}}
\@writefile{lof}{\contentsline {figure}{\numberline {3}{\ignorespaces Noise barrier (a) dan penambahan material absorptive \cite  {yamamoto}}}{3}}
\newlabel{barrier}{{3}{3}}
\@writefile{lof}{\contentsline {figure}{\numberline {4}{\ignorespaces Tipe-tipe noise barrier yang telah dipasang di Jepang dan Eropa}}{3}}
\newlabel{barrier_type}{{4}{3}}
\@writefile{lot}{\contentsline {table}{\numberline {I}{\ignorespaces Perbandingan hasil prediksi dan pengukuran kebisingan di dalam gerbong kereta (studi kasus KRL KFW)}}{4}}
\newlabel{tabel_prediksi}{{I}{4}}
\@writefile{toc}{\contentsline {section}{\numberline {III}ANALISIS DAN PEMBAHASAN}{4}}
\@writefile{toc}{\contentsline {subsection}{\numberline {\unhbox \voidb@x \hbox {III-A}}Prediksi Kebisingan}{4}}
\@writefile{toc}{\contentsline {subsection}{\numberline {\unhbox \voidb@x \hbox {III-B}}Pengendalian Bising}{4}}
\@writefile{lof}{\contentsline {figure}{\numberline {5}{\ignorespaces Plot aliran udara (streamline) hasil simulasi CFD}}{4}}
\newlabel{streamline}{{5}{4}}
\@writefile{lof}{\contentsline {figure}{\numberline {6}{\ignorespaces Plot pola persebaran tekanan udara AC hasil simulasi CFD}}{4}}
\newlabel{tekanan}{{6}{4}}
\@writefile{lot}{\contentsline {table}{\numberline {II}{\ignorespaces Perbandingan hasil prediksi dan pengukuran kebisingan di dalam gerbong kereta karena AC dengan CFD (studi kasus kereta Railink)}}{4}}
\newlabel{tabel_prediksi2}{{II}{4}}
\@writefile{lof}{\contentsline {figure}{\numberline {7}{\ignorespaces Desain enclosure untuk mengurangi bising kompresor (underfloor)}}{4}}
\newlabel{enclosure3}{{7}{4}}
\bibcite{sudarsih}{1}
\bibcite{thompson}{2}
\bibcite{peraturan}{3}
\@writefile{lof}{\contentsline {figure}{\numberline {8}{\ignorespaces Desain enclosure untuk pembangkit listrik pada kereta api ekonomi}}{5}}
\newlabel{enclosure4}{{8}{5}}
\@writefile{lof}{\contentsline {figure}{\numberline {9}{\ignorespaces Plot pola persebaran bunyi pada gerbong pembangkit dengan enclosure}}{5}}
\newlabel{enclosure5}{{9}{5}}
\@writefile{toc}{\contentsline {section}{\numberline {IV}KESIMPULAN}{5}}
\@writefile{toc}{\contentsline {section}{\numberline {V}REKOMENDASI}{5}}
\@writefile{toc}{\contentsline {section}{Pustaka}{5}}
\bibcite{blank}{4}
\bibcite{yamamoto}{5}
\bibcite{greece}{6}
